{
  "cli": {
    "version": ">= 10.2.4"
  },
  "build": {
    "development": {
      "developmentClient": true,
      "distribution": "internal"
    },
    "preview": {
      "distribution": "internal"
    },
    "production": {},
    "simulator": {
      "ios" : {
        "simulator" : true 
      }
    }
  },
  "submit": {
    "production": {}
  }
}
